{
  "_embedded": {
    "invitations": [
                    {
                    "telephone": "+4999912349876",
                    "status": [
                               "pending"
                               ],
                    "lastActivity": "2016-02-15T14:08:19.528Z",
                    "_links": {
                    "self": {
                    "href": "http://rest.api/_internal/invitations/invitation-id"
                    }
                    },
                    "id": "invitation-id"
                    },
                    {
                    "telephone": "004999912349877",
                    "status": [
                               "accepted"
                               ],
                    "lastActivity": "2015-12-08T09:38:26.03Z",
                    "_links": {
                    "self": {
                    "href": "http://rest.api/_internal/invitations/invitation-id"
                    }
                    },
                    "id": "invitation-id"
                    }
                    ]
  },
  "_links": {
    "first": {
      "href": "http://rest.api/_internal/invitationsd&page=0&size=2"
    },
    "self": {
      "href": "http://rest.api/_internal/invitations?size=2"
    },
    "next": {
      "href": "http://rest.api/_internal/invitations?page=1&size=2"
    },
    "last": {
      "href": "http://rest.api/_internal/invitations?page=13&size=2"
    }
  },
  "page":{
    "size":2,
    "totalElements":4,
    "totalPages":2,
    "number":0
  }
}