{
  "_embedded": {
    "smartConnects": [
                      {
                      "key": "piobyte-gmbh",
                      "description": "www",
                      "_links": {
                      "self": {
                      "href": "http://rest.api/smartConnects/smartConnect-id"
                      },
                      "business": {
                      "href": "http://rest.api/businesses/business-id"
                      },
                      "qrcode": {
                      "href": "http://rest.api/smartConnects/smartConnect-id/qr{?size}",
                      "templated": true
                      }
                      },
                      "id": "smartConnect-id"
                      },
                      {
                      "key": "piobyte-gmbh",
                      "description": "www",
                      "_links": {
                      "self": {
                      "href": "http://rest.api/smartConnects/smartConnect-id"
                      },
                      "business": {
                      "href": "http://rest.api/businesses/business-id"
                      },
                      "qrcode": {
                      "href": "http://rest.api/smartConnects/smartConnect-id/qr{?size}",
                      "templated": true
                      }
                      },
                      "id": "smartConnect-id"
                      }
                      ]
  },
  "_links": {
    "first": {
      "href": "http://rest.api/smartConnects?page=0&size=2"
    },
    "self": {
      "href": "http://rest.api/smartConnects?size=2"
    },
    "next": {
      "href": "http://rest.api/smartConnects?page=1&size=2"
    },
    "last": {
      "href": "http://rest.api/smartConnects?page=2&size=2"
    }
  },
  "page": {
    "size": 2,
    "totalElements": 4,
    "totalPages": 2,
    "number": 0
  }
}